127.0.0.1 - - [23/Feb/2024:13:22:03 +0530] "GET / HTTP/1.1" 404 751
0:0:0:0:0:0:0:1 - - [23/Feb/2024:13:22:05 +0530] "GET /EmpWebApp/EditEmployee.jsp HTTP/1.1" 200 1974
0:0:0:0:0:0:0:1 - - [23/Feb/2024:13:22:14 +0530] "GET /EmpWebApp/HrHomePage.jsp HTTP/1.1" 200 692
0:0:0:0:0:0:0:1 - - [23/Feb/2024:13:22:16 +0530] "GET /EmpWebApp/GetEmpById.jsp HTTP/1.1" 200 1227
0:0:0:0:0:0:0:1 - - [23/Feb/2024:13:22:18 +0530] "GET /EmpWebApp/GetEmpByName.jsp HTTP/1.1" 200 1245
0:0:0:0:0:0:0:1 - - [23/Feb/2024:13:22:22 +0530] "GET /EmpWebApp/GetEmpById.jsp HTTP/1.1" 200 1227
0:0:0:0:0:0:0:1 - - [23/Feb/2024:13:22:26 +0530] "GET /EmpWebApp/GetEmpById.jsp HTTP/1.1" 200 1227
0:0:0:0:0:0:0:1 - - [23/Feb/2024:13:22:27 +0530] "GET /EmpWebApp/GetAllEmployees HTTP/1.1" 200 3052
0:0:0:0:0:0:0:1 - - [23/Feb/2024:13:22:27 +0530] "GET /EmpWebApp/GetAllEmployees HTTP/1.1" 200 3052
0:0:0:0:0:0:0:1 - - [23/Feb/2024:13:22:29 +0530] "GET /EmpWebApp/GetEmpById.jsp HTTP/1.1" 200 1227
0:0:0:0:0:0:0:1 - - [23/Feb/2024:13:22:30 +0530] "GET /EmpWebApp/GetAllEmployees HTTP/1.1" 200 3052
0:0:0:0:0:0:0:1 - - [23/Feb/2024:13:22:36 +0530] "GET /EmpWebApp/Logout HTTP/1.1" 200 1473
0:0:0:0:0:0:0:1 - - [23/Feb/2024:13:22:56 +0530] "POST /EmpWebApp/LoginServlet HTTP/1.1" 200 690
0:0:0:0:0:0:0:1 - - [23/Feb/2024:13:23:01 +0530] "GET /EmpWebApp/GetAllEmployees HTTP/1.1" 200 3050
0:0:0:0:0:0:0:1 - - [23/Feb/2024:13:23:03 +0530] "GET /EmpWebApp/GetEmpById.jsp HTTP/1.1" 200 1225
0:0:0:0:0:0:0:1 - - [23/Feb/2024:13:23:07 +0530] "GET /EmpWebApp/GetAllEmployees HTTP/1.1" 200 3050
0:0:0:0:0:0:0:1 - - [23/Feb/2024:13:23:11 +0530] "GET /EmpWebApp/EditEmployee?empId=108 HTTP/1.1" 200 2017
0:0:0:0:0:0:0:1 - - [23/Feb/2024:13:23:18 +0530] "POST /EmpWebApp/UpdateEmployee HTTP/1.1" 200 3056
0:0:0:0:0:0:0:1 - - [23/Feb/2024:13:23:22 +0530] "GET /EmpWebApp/GetEmpByName.jsp HTTP/1.1" 200 1243
0:0:0:0:0:0:0:1 - - [23/Feb/2024:13:23:30 +0530] "POST /EmpWebApp/GetEmployeeByName HTTP/1.1" 404 782
0:0:0:0:0:0:0:1 - - [23/Feb/2024:13:23:39 +0530] "GET /EmpWebApp/GetAllEmployees HTTP/1.1" 200 3056
