INDEX VERSION 1.3+C:\Module3\fsd60_sql\3.AdvJava\EmpWebAppWorkSpace\.metadata\.plugins\org.eclipse.wst.jsdt.core\indexes
2586822459.index
2889170302.index
2836419256.index
3921594720.index
2379590864.index
1256956843.index
